

{
    "defaults": {
        "block_consistency": true,
        "keys": [ "mimeType", "starred" ],
        "losses": 1,
        "packet_consistency": false,
        "versioning": false
    },

    "locations":
    [
        {
            "id": 1,
            "provider": "dropbox",
            "userIdHash": "f998b373de54a1778ed5d7f3806b4fa6b095e2f1",
            "hint": "Dropbox account of Marcell"
        },
        {
            "id": 2,
            "provider": "google_drive",
            "userIdHash": "0e49c7e4ae9ef4c1290eedda09a1a7c67e864dea",
            "hint": "Dropbox account of Daniel Demo"
        },
        {
            "id": 3,
            "provider": "owncloud",
            "userIdHash": "a1ff1f07e8dc37e911f643da26969766b622a5a6",
            "hint": "Google Drive storage of Frank Demo"
        },
        {
            "id": 4,
            "deleted": true
        },
        {
            "id": 5,
            "provider": "onedrive",
            "userIdHash": "f998b373de54a1778ed5d7f3806b4fa6b095e2f1",
            "hint": "Marcell's OneDrive storage"
        },
        {
            "id": 6,
            "provider": "hidrive",
            "userIdHash": "f998b373de54a1778ed5d7f3806b4fa6b095e2f1",
            "hint": "Strato storage of Frank"
        }
    ],

    "contents":
    [

        {
            "key": "Invoices/",
            "locationIds": [1,2,5,6],
            "dataSize": 0,
            "protection": 3,
            "cachedAttributes": { "type": "folder", "lastModified": "1289534987534" },
            "objectMetaTag": "folder-details.v1.json"
        },
        {
            "key": "Invoices/January.pdf",
            "cachedAttributes": { "type": "file", "size": "987423964", "lastModified": "41367281423" },
            "locationIds": [1,2,3,5,6],
            "protection": 2,
            "dataSize": 423423,
            "versioningEnabled": true,
            "objectMetaTag": "object-details.v2.json",
            "codingSettingsTag": "CodingSettings.v3.json"
        },
        {
            "key": "Invoices2/",
            "cachedAttributes": {},
            "locationIds": [1,2,3],
            "protection": 1,
            "dataSize": 0,
            "versioningEnabled": false,
            "objectMetaTag": "folder-details.v1.json"
        }

    ]

}