[
    {
        "key": "my-first-bucket",
        "created": 1454567481,
        "contentsTag": "bucket-contents.json"
    },
    {
        "key": "my-second-bucket",
        "created": 1442031664,
        "contentsTag": "bucket-contents.json"
    },
    {
        "key": "my-third-bucket",
        "created": 1457195648,
        "contentsTag": "bucket-contents.json"
    },
    {
        "key": "my-fourth-bucket",
        "created": 1482366750,
        "contentsTag": "bucket-contents.json"
    }
]