{
	"buckets": [
		{
			"created": 1459502824,
			"key": "m1",
			"settings": {
				"block_consistency": true,
				"keys": [
				],
				"losses": 0,
				"packet_consistency": false,
				"versioning": false 
			},
			"tag": "ObjectStorage\/m1\/bucketContents.json" 
		},
		{
			"created": 1459502825,
			"key": "m2",
			"settings": {
				"block_consistency": true,
				"keys": [
				],
				"losses": 0,
				"packet_consistency": false,
				"versioning": false 
			},
			"tag": "ObjectStorage\/m2\/bucketContents.json" 
		},
		{
			"created": 1459502828,
			"key": "m5",
			"settings": {
				"block_consistency": true,
				"keys": [
				],
				"losses": 0,
				"packet_consistency": false,
				"versioning": false 
			},
			"tag": "ObjectStorage\/m5\/bucketContents.json" 
		} 
	] 
} 
